{
  "format": "isopack-2-unibuild",
  "declaredExports": [],
  "uses": [
    {
      "package": "meteor"
    },
    {
      "package": "coffeescript",
      "constraint": "1.0.5"
    },
    {
      "package": "less",
      "constraint": "2.5.1"
    },
    {
      "package": "templating",
      "constraint": "1.0.11"
    },
    {
      "package": "aldeed:autoform",
      "constraint": "4.1.0 || 5.1.2"
    }
  ],
  "implies": [
    {
      "package": "aldeed:simple-schema",
      "constraint": ""
    },
    {
      "package": "aldeed:collection2",
      "constraint": ""
    }
  ],
  "resources": [
    {
      "type": "source",
      "extension": "coffee",
      "file": "os/lib/both/collections.coffee",
      "length": 479,
      "offset": 0,
      "path": "lib/both/collections.coffee",
      "hash": "ee4f69dfebd5244da1121855eae20a673b82b0b5",
      "fileOptions": {}
    },
    {
      "type": "source",
      "extension": "coffee",
      "file": "os/lib/server/allow.coffee",
      "length": 62,
      "offset": 0,
      "path": "lib/server/allow.coffee",
      "hash": "170323f866860ae46b94000390c181200a5f93df",
      "fileOptions": {}
    },
    {
      "type": "source",
      "extension": "coffee",
      "file": "os/lib/server/publish.coffee",
      "length": 186,
      "offset": 0,
      "path": "lib/server/publish.coffee",
      "hash": "4fcc80e47c60178c7f73987ff6f6f669f6b481ba",
      "fileOptions": {}
    }
  ]
}